<?xml version="1.0" encoding="UTF-8"?>
<svg width="16px" height="13px" viewBox="0 0 16 13" version="1.1" xmlns="http://www.w3.org/2000/svg" xmlns:xlink="http://www.w3.org/1999/xlink">
  <!-- Generator: Sketch 63.1 (92452) - https://sketch.com -->
  <title>check</title>
  <desc>Created with Sketch.</desc>
  <g id="Page-1" stroke="none" stroke-width="1" fill="none" fill-rule="evenodd">
    <g id="check" fill="#000000" fill-rule="nonzero">
      <path d="M14.2828996,0.156017467 L5.09358952,9.34532751 L1.71710044,5.96883843 C1.55339738,5.80513537 1.28796507,5.80513537 1.12422707,5.96883843 L0.136139738,6.95692576 C-0.0275633188,7.12062882 -0.0275633188,7.38606114 0.136139738,7.54979913 L4.79713537,12.2107948 C4.96083843,12.3744978 5.22627074,12.3744978 5.39000873,12.2107948 L15.8638253,1.73697817 C16.0275284,1.57327511 16.0275284,1.30784279 15.8638253,1.1441048 L14.875738,0.156017467 C14.7120349,-0.00768558952 14.4466026,-0.00768558952 14.2828996,0.156017467 Z" id="Path"></path>
    </g>
  </g>
</svg>
