<?xml version="1.0" encoding="UTF-8"?>
<svg width="16px" height="16px" viewBox="0 0 16 16" version="1.1" xmlns="http://www.w3.org/2000/svg" xmlns:xlink="http://www.w3.org/1999/xlink">
    <!-- Generator: Sketch 64 (93537) - https://sketch.com -->
    <title>Shape</title>
    <desc>Created with Sketch.</desc>
    <g id="Page-1" stroke="none" stroke-width="1" fill="none" fill-rule="evenodd">
        <g id="gallery" fill="#4A5568" fill-rule="nonzero">
            <path d="M14.125,0 L1.875,0 C0.841064438,0 0,0.841064438 0,1.875 L0,10.40625 L16,10.40625 L16,1.875 C16,0.841064438 15.1589356,0 14.125,0 Z M14.75,9.15625 L1.25,9.15625 L1.25,1.875 C1.25,1.5303955 1.5303955,1.25 1.875,1.25 L14.125,1.25 C14.4696045,1.25 14.75,1.5303955 14.75,1.875 L14.75,9.15625 Z M0,14.125 C0,15.1589356 0.841064438,16 1.875,16 L4.4375,16 L4.4375,11.6875 L0,11.6875 L0,14.125 Z M1.25,12.9375 L3.1875,12.9375 L3.1875,14.75 L1.875,14.75 C1.5303955,14.75 1.25,14.4696045 1.25,14.125 L1.25,12.9375 Z M11.5625,16 L14.125,16 C15.1589356,16 16,15.1589356 16,14.125 L16,11.6875 L11.5625,11.6875 L11.5625,16 Z M12.8125,12.9375 L14.75,12.9375 L14.75,14.125 C14.75,14.4696045 14.4696045,14.75 14.125,14.75 L12.8125,14.75 L12.8125,12.9375 Z M5.8125,16 L10.21875,16 L10.21875,11.6875 L5.8125,11.6875 L5.8125,16 Z M7.0625,12.9375 L8.96875,12.9375 L8.96875,14.75 L7.0625,14.75 L7.0625,12.9375 Z M8.37072753,4.16149903 L7.61206056,5.26293944 L5.61755372,2.84619141 L2.6875,6.99560547 L2.6875,7.96875 L7.26586913,7.96875 L8.42944338,6.27978516 L9.71215819,7.9375 L13.125,7.9375 L13.125,6.6875 L10.3254394,6.6875 L8.37072753,4.16149903 Z M6.60913088,6.71875 L4.413208,6.71875 L5.69482422,4.90380859 L6.87463378,6.33337403 L6.60913088,6.71875 Z M10.59375,3.40625 C10.59375,2.88842775 11.0135498,2.46875 11.53125,2.46875 C12.0489502,2.46875 12.46875,2.88842775 12.46875,3.40625 C12.46875,3.92407225 12.0489502,4.34375 11.53125,4.34375 C11.0135498,4.34375 10.59375,3.92407225 10.59375,3.40625 Z" id="Shape"></path>
        </g>
    </g>
</svg>