<svg xmlns="http://www.w3.org/2000/svg" width="18" height="16" viewBox="0 0 18 16">
    <path fill="#4A5568" fill-rule="nonzero" d="M1.385 0C.62 0 0 .62 0 1.385V15.23h18V1.385C18 .62 17.38 0 16.615 0H1.385zm0 4.154h15.23v9.692H1.385V4.154zm8.33 1.375a.692.692 0 0 0-.695.534l-1.384 5.539a.693.693 0 1 0 1.344.335l1.384-5.539a.692.692 0 0 0-.649-.869zm-4.19.694a.692.692 0 0 0-.563.316L3.322 9l1.64 2.46a.692.692 0 1 0 1.152-.767L4.985 9l1.13-1.693a.692.692 0 0 0-.59-1.084zm6.928 0a.692.692 0 0 0-.567 1.084L13.015 9l-1.13 1.693a.692.692 0 1 0 1.153.768L14.678 9l-1.64-2.46a.692.692 0 0 0-.585-.317z"/>
</svg>
