<?xml version="1.0" encoding="UTF-8"?>
<svg width="18px" height="18px" viewBox="0 0 18 18" version="1.1" xmlns="http://www.w3.org/2000/svg" xmlns:xlink="http://www.w3.org/1999/xlink">
    <!-- Generator: Sketch 64 (93537) - https://sketch.com -->
    <title>360</title>
    <desc>Created with Sketch.</desc>
    <g id="Page-1" stroke="none" stroke-width="1" fill="none" fill-rule="evenodd">
        <g id="360" fill="#4A5568" fill-rule="nonzero">
            <path d="M14.9968125,0.405457031 C14.710043,0.405457031 14.4775898,0.637945312 14.4775898,0.924679687 L14.4775898,1.85762109 C12.913418,0.652992188 11.007,0 9,0 C6.59601562,0 4.33592578,0.936175781 2.63601563,2.63601563 C0.936140625,4.33589062 0,6.59601562 0,9 C0,11.4040547 0.936175781,13.6641797 2.63608594,15.3640547 C2.73747656,15.4654805 2.87036719,15.5161406 3.00322266,15.5161406 C3.13607813,15.5161406 3.26900391,15.4654453 3.37039453,15.3640547 C3.57314063,15.1612734 3.57314063,14.8325273 3.37039453,14.6297461 C1.86662109,13.1259727 1.03844531,11.1266719 1.03844531,9 C1.03844531,4.61000391 4.61000391,1.03844531 9,1.03844531 C10.6625039,1.03844531 12.2471719,1.54458984 13.5781172,2.48396484 L12.9198867,2.48396484 C12.6331172,2.48396484 12.4006641,2.71645313 12.4006641,3.0031875 C12.4006641,3.28992188 12.6331523,3.52241016 12.9198867,3.52241016 L14.9968125,3.52241016 C15.0134062,3.52241016 15.0297539,3.52142578 15.0459609,3.51991406 C15.0461367,3.51991406 15.0463125,3.51991406 15.0464883,3.51987891 C15.0609023,3.51850781 15.0750352,3.51625781 15.0890977,3.51376172 C15.0915586,3.51330469 15.0940547,3.51309375 15.0965156,3.51263672 C15.1102266,3.50996484 15.1236211,3.50648438 15.1369453,3.50275781 C15.1398281,3.50194922 15.1427461,3.50138672 15.1456289,3.50050781 C15.1585664,3.49664063 15.1711875,3.49203516 15.183668,3.48718359 C15.1869375,3.48595313 15.1902422,3.48489844 15.1935117,3.48359766 C15.2058164,3.47857031 15.2176641,3.47283984 15.2294766,3.46689844 C15.2328516,3.46521094 15.2362969,3.46376953 15.2396367,3.46201172 C15.2520117,3.45547266 15.2638945,3.44823047 15.2756367,3.44070703 C15.278168,3.43908984 15.2808398,3.43768359 15.2833711,3.43603125 C15.3414492,3.3975 15.3913008,3.34764844 15.4297969,3.28957031 C15.4314844,3.28703906 15.4328906,3.28436719 15.4345078,3.28180078 C15.4419961,3.27005859 15.4492031,3.25817578 15.4557773,3.24587109 C15.4575352,3.24249609 15.4590117,3.23905078 15.4606992,3.23567578 C15.4666055,3.22389844 15.4723359,3.21205078 15.4773633,3.19978125 C15.4786641,3.19651172 15.4797187,3.19320703 15.4809492,3.18990234 C15.4858008,3.17742187 15.4904062,3.16480078 15.4942734,3.15186328 C15.4951172,3.14908594 15.4956445,3.14623828 15.496418,3.14346094 C15.5001797,3.13006641 15.5036953,3.11653125 15.5063672,3.10271484 C15.5067891,3.10053516 15.507,3.09828516 15.5073867,3.09610547 C15.5128711,3.06587109 15.5161406,3.03493359 15.5161406,3.00315234 L15.5161406,0.924679687 C15.5161406,0.637910156 15.2835469,0.405457031 14.9968125,0.405457031 Z" id="Path"></path>
            <path d="M5.96355469,9 C6.42733594,8.83086328 6.74152734,8.38944141 6.74152734,7.88677734 C6.74152734,7.23311719 6.20975391,6.70137891 5.55616406,6.70137891 L3.84978516,6.70137891 C3.56301562,6.70137891 3.3305625,6.93386719 3.3305625,7.22060156 C3.3305625,7.50733594 3.56305078,7.73982422 3.84978516,7.73982422 L5.55616406,7.73982422 C5.63716406,7.73982422 5.70308203,7.80574219 5.70308203,7.88677734 C5.70308203,7.9543125 5.65730859,8.01291797 5.59177734,8.02930078 L4.45886719,8.31255469 C4.1428125,8.39155078 3.92213672,8.67424219 3.92213672,9 C3.92213672,9.32575781 4.14284766,9.60848437 4.45886719,9.68744531 L5.59177734,9.97069922 C5.65730859,9.98711719 5.70304687,10.0456875 5.70304687,10.1132227 C5.70304687,10.1942578 5.63712891,10.2601758 5.55612891,10.2601758 L3.84975,10.2601758 C3.56298047,10.2601758 3.33052734,10.4926641 3.33052734,10.7793984 C3.33052734,11.0661328 3.56301562,11.2986211 3.84975,11.2986211 L5.55612891,11.2986211 C6.20975391,11.2986211 6.74152734,10.7668477 6.74152734,10.1132227 C6.74152734,9.61055859 6.42726562,9.16913672 5.96355469,9 Z" id="Path"></path>
            <path d="M9.29654297,8.48077734 L8.33294531,8.48077734 L8.33294531,8.11033594 C8.33294531,7.90607812 8.49912891,7.73985937 8.70342188,7.73985937 L10.1862422,7.73985937 C10.4730117,7.73985937 10.7054648,7.50737109 10.7054648,7.22063672 C10.7054648,6.93390234 10.4729766,6.70141406 10.1862422,6.70141406 L8.70342188,6.70141406 C7.92653906,6.70141406 7.29446484,7.33348828 7.29446484,8.11037109 L7.29446484,9.88973437 C7.29446484,10.6666172 7.92650391,11.2986914 8.70342188,11.2986914 L9.29654297,11.2986914 C10.0734258,11.2986914 10.7055,10.6666172 10.7055,9.88973437 C10.7055,9.11285156 10.0734609,8.48077734 9.29654297,8.48077734 Z M9.29654297,10.2601758 L8.70342188,10.2601758 C8.49916406,10.2601758 8.33294531,10.093957 8.33294531,9.88969922 L8.33294531,9.51925781 L9.29654297,9.51925781 C9.50080078,9.51925781 9.66701953,9.68544141 9.66701953,9.88969922 C9.66701953,10.093957 9.50083594,10.2601758 9.29654297,10.2601758 Z" id="Shape"></path>
            <path d="M13.2605508,6.70137891 L12.6674297,6.70137891 C11.8905469,6.70137891 11.2585078,7.33345312 11.2585078,8.11033594 L11.2585078,9.88969922 C11.2585078,10.666582 11.8905469,11.2986563 12.6674297,11.2986563 L13.2605508,11.2986563 C14.0374336,11.2986563 14.6694727,10.666582 14.6694727,9.88969922 L14.6694727,8.11033594 C14.6694727,7.33345312 14.0374336,6.70137891 13.2605508,6.70137891 Z M13.6310273,9.88969922 C13.6310273,10.093957 13.4648438,10.2601758 13.2605859,10.2601758 L12.6674648,10.2601758 C12.463207,10.2601758 12.2970234,10.093957 12.2970234,9.88969922 L12.2970234,8.11033594 C12.2970234,7.90607812 12.463207,7.73985937 12.6674648,7.73985937 L13.2605859,7.73985937 C13.4648438,7.73985937 13.6310273,7.90607812 13.6310273,8.11033594 L13.6310273,9.88969922 Z" id="Shape"></path>
            <path d="M9.20446875,16.9589883 C9.07073438,16.9623633 8.93387109,16.9623633 8.80017188,16.9590937 C8.51361328,16.9532227 8.27532422,17.1785742 8.26815234,17.4652383 C8.26101563,17.7519375 8.48763281,17.9900859 8.77433203,17.9972227 C8.84900391,17.9990859 8.92490625,18.0000352 9,18.0000352 C9.07674609,18.0000352 9.15433594,17.9990508 9.23069531,17.9971172 C9.51739453,17.989875 9.74390625,17.7516211 9.73666406,17.464957 C9.72942187,17.1782578 9.49025391,16.9522383 9.20446875,16.9589883 Z" id="Path"></path>
            <path d="M17.7501094,6.88552734 C17.7146719,6.73829297 17.6749102,6.59000391 17.6320195,6.44484375 C17.5507383,6.16981641 17.2619297,6.01287891 16.9869023,6.09408984 C16.711875,6.17540625 16.554832,6.46425 16.6361484,6.73920703 C16.674082,6.86752734 16.7092031,6.99855469 16.7405625,7.12866797 C16.7978672,7.36660547 17.0104922,7.52646094 17.2449492,7.52646094 C17.285168,7.52646094 17.3260898,7.52171484 17.3669414,7.51187109 C17.6456602,7.44475781 17.8172578,7.16431641 17.7501094,6.88552734 Z" id="Path"></path>
            <path d="M5.19514453,15.9953555 C5.07744141,15.9311953 4.95994922,15.8632383 4.84590234,15.7933125 C4.60146094,15.6434414 4.28175,15.7200469 4.13184375,15.9645234 C3.9819375,16.2089648 4.05861328,16.5286758 4.30305469,16.678582 C4.43211328,16.7577187 4.56503906,16.8346406 4.69817578,16.907168 C4.77710156,16.9501641 4.86221484,16.9705898 4.94620313,16.9705898 C5.13010547,16.9705898 5.30834766,16.8726445 5.40256641,16.6997109 C5.53981641,16.447957 5.44689844,16.1325703 5.19514453,15.9953555 Z" id="Path"></path>
            <path d="M7.13520703,16.7420742 C7.00477734,16.7107852 6.87357422,16.6757695 6.74532422,16.6379062 C6.47022656,16.5569062 6.18159375,16.714125 6.10052344,16.9891875 C6.01945312,17.26425 6.17674219,17.5529531 6.45180469,17.6340234 C6.59692969,17.6767734 6.74535937,17.7163945 6.89291016,17.751832 C6.93362109,17.7616055 6.97440234,17.7663164 7.01448047,17.7663164 C7.24904297,17.7663164 7.46180859,17.6062148 7.51897266,17.3681016 C7.585875,17.0892773 7.41406641,16.8090117 7.13520703,16.7420742 Z" id="Path"></path>
            <path d="M16.9037578,4.69191797 C16.8312656,4.55920312 16.7542734,4.42641797 16.6750312,4.29725391 C16.5250195,4.05288281 16.2052383,3.97634766 15.9608672,4.12639453 C15.7164961,4.27640625 15.6399961,4.59615234 15.7900078,4.84055859 C15.8601445,4.95481641 15.9282422,5.07227344 15.992332,5.18969531 C16.0866562,5.36238281 16.2646875,5.46015234 16.4484844,5.46015234 C16.5326133,5.46015234 16.6179375,5.43965625 16.6969336,5.39648438 C16.9486172,5.25902344 17.0411836,4.94360156 16.9037578,4.69191797 Z" id="Path"></path>
            <path d="M11.9030273,16.9879922 C11.8218867,16.7129648 11.5331484,16.5558516 11.2580859,16.636957 C11.1293086,16.6749609 10.9982813,16.7100117 10.868625,16.7411953 C10.5898008,16.808168 10.4180273,17.0885039 10.485,17.3673281 C10.5421992,17.6054063 10.7548945,17.7654375 10.989457,17.7654375 C11.0295703,17.7654375 11.0703867,17.7607266 11.1111328,17.750918 C11.2580156,17.7156563 11.4063398,17.6759648 11.5520273,17.6329687 C11.8270195,17.551793 11.984168,17.2629844 11.9030273,16.9879922 Z" id="Path"></path>
            <path d="M17.3686992,10.4776523 C17.0897695,10.4108555 16.8095742,10.5828047 16.7428125,10.8616992 C16.7116289,10.9918828 16.6766484,11.1230156 16.6388906,11.2513711 C16.5579258,11.5264687 16.7153203,11.8150664 16.990418,11.8960312 C17.0393203,11.9104453 17.0886445,11.9173008 17.1372305,11.9173008 C17.3615977,11.9173008 17.5685625,11.7706992 17.6351133,11.5445039 C17.6778633,11.3992734 17.7174141,11.2508789 17.7527109,11.1035391 C17.8195078,10.8246797 17.6475586,10.5444844 17.3686992,10.4776523 Z" id="Path"></path>
            <path d="M16.7013984,12.5940586 C16.4495742,12.4569141 16.1342227,12.549832 15.997043,12.8017266 C15.9329531,12.9193242 15.8649961,13.0370273 15.7948945,13.1515312 C15.6451641,13.3960781 15.7220508,13.7157539 15.9666328,13.8654844 C16.0512188,13.9172695 16.1448047,13.9419492 16.2372305,13.9419492 C16.411957,13.9419492 16.5826406,13.853707 16.6805859,13.6937461 C16.759793,13.5643711 16.8366797,13.4313398 16.9090312,13.2983789 C17.0462109,13.0465547 16.9532227,12.7312031 16.7013984,12.5940586 Z" id="Path"></path>
            <path d="M15.5065078,14.4644063 C15.2985938,14.2668984 14.9699531,14.2752656 14.7724102,14.4831797 C14.680125,14.5803164 14.5841484,14.6763281 14.487082,14.7686836 C14.2793438,14.9663672 14.2711523,15.2950078 14.4688359,15.5027812 C14.5709297,15.610043 14.7078633,15.6640781 14.8451133,15.6640781 C14.9736797,15.6640781 15.102457,15.6166172 15.2029336,15.5210273 C15.3125508,15.4166836 15.4210078,15.3082266 15.5252812,15.1984687 C15.7227891,14.990625 15.7144219,14.6619844 15.5065078,14.4644063 Z" id="Path"></path>
            <path d="M17.9970469,8.76691406 C17.9898398,8.48475 17.7588984,8.26091016 17.4782461,8.26091016 C17.4737812,8.26091016 17.4692812,8.26098047 17.4647812,8.26108594 C17.178082,8.26839844 16.9516055,8.5066875 16.958918,8.79335156 C16.9606406,8.86173047 16.9615547,8.93123438 16.9615547,9.00003516 C16.9615547,9.06570703 16.9607461,9.13208203 16.9591641,9.19740234 C16.9522031,9.48410156 17.1789961,9.72210938 17.4656602,9.72907031 C17.4699492,9.72917578 17.4742031,9.72921094 17.478457,9.72921094 C17.7593906,9.72921094 17.9904375,9.50494922 17.997293,9.22253906 C17.9990508,9.14888672 18,9.07400391 18,9 C18,8.92244531 17.9989805,8.84401172 17.9970469,8.76691406 Z" id="Path"></path>
            <path d="M13.8703359,15.9630117 C13.7204297,15.7186406 13.4007188,15.642 13.1562422,15.7919414 C13.0423008,15.8619023 12.9249844,15.9297891 12.8075273,15.9938789 C12.5558086,16.1312344 12.4631016,16.4466563 12.600457,16.698375 C12.6947109,16.8711328 12.8728477,16.9690078 13.0566797,16.9690078 C13.1407383,16.9690078 13.2259922,16.9485469 13.3049531,16.9054453 C13.4377383,16.8329883 13.5703828,16.7561367 13.6992656,16.6771055 C13.9437422,16.5271992 14.0203125,16.2074883 13.8703359,15.9630117 Z" id="Path"></path>
        </g>
    </g>
</svg>