<?xml version="1.0" encoding="UTF-8"?>
<svg width="16px" height="16px" viewBox="0 0 16 16" version="1.1" xmlns="http://www.w3.org/2000/svg" xmlns:xlink="http://www.w3.org/1999/xlink">
    <!-- Generator: Sketch 64 (93537) - https://sketch.com -->
    <title>video</title>
    <desc>Created with Sketch.</desc>
    <g id="Page-1" stroke="none" stroke-width="1" fill="none" fill-rule="evenodd">
        <g id="video" fill="#4A5568" fill-rule="nonzero">
            <path d="M7.99864706,15.9972353 C12.4161176,15.9972353 15.9972941,12.4161176 15.9972941,7.99858824 C15.9972941,3.58105882 12.4161176,0 7.99864706,0 C3.58117647,0 0,3.58111765 0,7.99864706 C0,12.4161765 3.58111765,15.9972353 7.99864706,15.9972353 Z M14.7174706,7.99864706 C14.7174706,11.7032941 11.7032941,14.7174706 7.99864706,14.7174706 C4.294,14.7174706 1.27982353,11.7032941 1.27982353,7.99864706 C1.27982353,4.294 4.294,1.27982353 7.99864706,1.27982353 C11.7032941,1.27982353 14.7174706,4.294 14.7174706,7.99864706 Z" id="Shape"></path>
            <path d="M6.60558824,12.0606471 C6.76394118,12.1262353 6.92523529,12.1582353 7.09,12.1582353 C7.42305882,12.1582353 7.74782353,12.0283529 7.99258824,11.7832353 L10.8708235,8.90370588 C11.3705882,8.40394118 11.3699412,7.59352941 10.8701765,7.09376471 L7.99035294,4.21423529 C7.74558824,3.96947059 7.418,3.83923529 7.08488235,3.83923529 C6.92011765,3.83923529 6.76364706,3.87123529 6.60529412,3.93682353 C6.12729412,4.13488235 5.82558824,4.60135294 5.82558824,5.119 L5.82558824,10.878 C5.82552941,11.3958235 6.12729412,11.8625882 6.60558824,12.0606471 Z M7.10535294,5.21252941 L7.10535294,5.11911765 L9.98488235,7.99864706 L7.10535294,10.8781765 L7.10535294,5.21252941 Z" id="Shape"></path>
        </g>
    </g>
</svg>