<?xml version="1.0" encoding="UTF-8"?>
<svg width="15px" height="15px" viewBox="0 0 15 15" version="1.1" xmlns="http://www.w3.org/2000/svg" xmlns:xlink="http://www.w3.org/1999/xlink">
  <!-- Generator: Sketch 63.1 (92452) - https://sketch.com -->
  <title>cross</title>
  <desc>Created with Sketch.</desc>
  <g id="Page-1" stroke="none" stroke-width="1" fill="none" fill-rule="evenodd">
    <g id="cross" fill="#000000" fill-rule="nonzero">
      <polygon id="Path" points="1.1361 0.075447 14.9247 13.86405 13.86405 14.9247 0.0754395 1.1361075"></polygon>
      <polygon id="Path" points="0.07555275 13.86405 13.864125 0.0754395 14.924775 1.1361 1.1362125 14.9247"></polygon>
    </g>
  </g>
</svg>
